1.155471670225847181e-01,-1.069000329208310562e-01,3.844708397061311622e-01,-1.860385557510965793e+00,-1.649157958094186860e+00,1.599175798720128050e+00,2.089448672241865645e-01,-1.344566311633568767e-01,-7.341104481849609620e-01,-1.025196698303377230e-01,1.190081098285591665e-01,-4.587176010939060800e-01,2.631650341813018268e-01,-5.055266314047155429e-01,-2.333608597556398045e+00,1.664584282312848496e+00,1.583565918753821133e+00,2.997264831668259077e+00,4.941091991165317276e-01,-4.279200807386940753e+00,-8.919007011111640182e+00
-7.370395401297608062e-01,-1.799426723397343220e-01,-1.754081002956690838e-01,-2.009372406203334460e+00,1.941577418429048241e-01,3.012391008993723140e+00,9.820655632757026299e-02,-1.546348284210757595e-01,2.880146657225119977e-01,3.511244004253549766e-02,6.226623650148770395e-01,-7.450703248272810830e-01,-2.858877396141615290e-03,1.252427004697935775e+00,1.203295001790837038e+00,8.272041441824790065e-01,3.886467496833536650e+00,3.001977184559745382e+00,6.856027675750073769e-01,-1.746496801923072884e+00,-3.381037294499130486e+00
-1.292083893286846696e-03,-9.939967607745246736e-02,-1.431350702130235533e-02,-1.838291057829506858e+00,2.052414316456260490e+00,1.770411689686591572e+00,-3.692246013885629452e-01,8.932734336754266646e-01,-5.476289542463020910e-01,-4.726031840530847128e-01,-3.056153600636480894e-01,5.210827263346086147e-01,-1.211809231409651244e-01,9.622149602568376148e-01,6.449780219042192897e+00,1.578411874573200979e+00,-1.171163690608017394e+00,6.337784468844916974e-01,-2.503385383396809161e+00,-1.469362118190028932e+00,6.728415410350586434e+00
2.303195762248189116e-03,1.466965501517000434e-03,4.976465209500927633e-01,-2.196422931872209716e+00,4.374117898757563516e-01,2.176235934015992246e+00,3.414818849324659511e-01,1.081843743119717427e+00,4.954621480166568337e-02,7.374519915211339427e-01,-2.152344298422894375e-01,-1.292421700933529483e+00,-1.769190931048792326e+00,1.125878148818089119e+00,3.231636112977689823e+00,7.376394631594418438e-02,-7.706457818823352568e+00,-3.223231084520921108e-01,6.796752025390273566e-02,-5.667685160554591484e+00,4.883675885915865766e-01
-4.263111559222911295e-01,-2.078430100816922865e-01,9.238781634563546508e-01,-1.508134413029070142e+00,3.053548030963394028e-02,2.128753317724620064e+00,9.272773633883085731e-02,-1.711238901419472658e+00,-5.027100736253568847e-02,5.472625912374192714e-01,4.905855639694126635e-01,1.093509576163226527e+00,-1.957484430084084348e-01,-2.141487614059391364e-01,5.279633112324259026e-01,3.509065332345157051e-01,3.027038360444209708e+00,-1.144685675808894576e+00,-4.167265967703942309e+00,-8.651001222391236922e+00,-4.233616754607967270e-01
-7.071999088214139251e-01,1.001944111357416373e-01,-3.663310068460678970e-02,-1.396595185443591403e+00,-1.253311486609967940e+00,2.116007701645680861e+00,-8.760167075350081545e-01,-6.003991929035215613e-02,4.557406312041875629e-02,9.440516152402927963e-02,1.517438583008958730e-01,6.515231620906922760e-01,5.646229065698343819e-01,9.570672989235896599e-01,-3.567296067078983057e+00,-2.727577032587579886e+00,-4.864512927162181199e+00,3.216573761766084782e+00,3.473089419431514724e+00,-2.238963964360990211e+00,3.723496815320771258e+00
1.802690570771860179e-01,-1.023315037028196040e+00,3.330435693078727388e-02,-2.011996088924814075e+00,8.485626392976351740e-02,2.230521657807370772e+00,-9.042865803074490172e-01,-6.312993634980441637e-01,-5.430327526069115285e-01,-5.097361691644080040e-01,3.829003692049061658e-01,-9.181418994287696145e-02,-7.858531942985115260e-01,-1.511166523053510069e+00,5.522439601311317503e-01,8.654785083062233042e-02,5.634332293166090189e+00,-4.292164972164239423e+00,-2.061391203266875749e+00,-1.148687397188544734e+00,2.829980674197085655e-01
-5.009095268023184833e-01,3.933148426874536613e-02,1.135658310259307635e-02,-1.533090967492834578e+00,-9.267755965036486021e-01,1.848627362240623295e+00,7.350054649602812962e-01,-4.035452005414456034e-01,3.116794087479218822e-01,-1.717081559186137696e-01,-1.092975304778961654e+00,-7.372334498504120592e-01,-1.841715905610178394e-01,8.903350603224677862e-01,2.537962443976771620e+00,-1.920498286049475034e+00,6.467083634077873455e+00,-2.944609786325824263e+00,3.964626843393151967e-01,6.718474376757324062e-01,2.682746115651966079e+00
4.088842658201355396e-02,1.807409802341246319e-01,1.276014692061908651e-01,-1.685075605457123427e+00,3.256440142290388806e-01,1.411413398649578044e+00,2.911413847204247229e-01,7.776395764807783051e-01,5.214779439037506847e-01,-3.727628299886410757e-01,2.868658098743456231e-01,2.922517142532331524e-01,3.309933441216778571e-01,-9.057087480109173860e-01,-2.941460284622512411e-01,-9.299026512186914228e-01,-8.007639584942193522e+00,-1.252804313249422929e-01,-1.503900660726021243e+00,2.837420557661840537e-01,-7.180723463959329145e+00
-2.776294208163458677e-02,6.241037744047516801e-03,-5.133622702122771220e-02,-1.520831606952234072e+00,4.970427600288739867e-01,2.540767545678001227e+00,8.254654049338165933e-01,2.425729524671280113e-02,-2.549990906592050077e-01,8.756000408197409657e-01,-3.746186071972010256e-01,-1.141580955302255562e+00,1.092006778496554142e+00,-1.792893906063803833e-01,-3.110093578444148577e-01,-2.399405203566074007e-02,-5.148286722706529872e-01,-2.545138864583466276e+00,3.814371073722431671e+00,-1.420285986621597774e+00,1.058651816967124848e+00
1.244935078889903846e-01,-6.499682000177896546e-01,3.812747146456626490e-01,-1.740392590605416734e+00,3.987389266645510189e-01,1.831911363333645903e+00,-1.050336176246420283e+00,5.507892448728394230e-01,-2.347440481459152628e-01,-4.665207354977696230e-02,2.956606796848493257e-02,3.812468339731890365e-01,-4.209861414238824651e-01,3.285406695881263883e-01,-7.773734109452844265e+00,-5.417044448573384852e-01,1.736968135887934750e+00,3.279761715404788003e+00,-7.248323167392745958e+00,-4.406967222295181230e+00,-7.162169584208997186e+00
5.221807112331990908e-01,-1.095567073040497053e-01,-7.458884278569073017e-03,-5.146634592584664603e-01,-3.682075311808123974e-01,1.418583277663064024e+00,3.125761308250352144e-02,-5.297232064848858002e-01,5.983628251186978719e-01,-5.603955592103548877e-02,2.801722671967764311e-02,-1.203325340165715573e+00,1.468052926773148581e+00,-7.636241903519545016e-01,-3.564302050276665135e+00,1.899809077513493705e+00,9.556855384520975827e-01,1.150890066624693286e+00,-3.768872409385851885e+00,1.923881378511804296e+00,-7.848756583716840929e+00
-3.791230462303650794e-01,1.861265805097755272e-02,-1.170995307661305829e-01,-1.313165576283685132e+00,1.274329582312727638e+00,1.635027884654502772e+00,-1.397852360152649909e-01,-9.848943220389443365e-01,-2.707238071289917447e-01,2.606425726011498689e-01,-6.464564881380011063e-02,-2.170425385901391668e-01,-1.519958367996415038e+00,2.249023248291219801e-01,-1.579566259839411568e+00,-1.966687754144273770e+00,1.820397092473214240e+00,-7.830372444664522869e-01,-2.489372106595483913e+00,2.031026367139269873e+00,-2.866322817228950104e+00
4.700808986012090795e-02,1.066509667163046890e-02,1.062621848040430465e-02,-1.663117857959518497e+00,-3.011371756183886181e-02,3.209831418417281590e+00,-6.338635031687442911e-01,2.490156998965946389e-01,7.320294661306073203e-02,-8.304696156040680677e-04,6.627205594415196410e-01,-1.002727027012104699e+00,1.820868978987154330e-02,-5.219825006205991436e-02,3.112859591580487084e+00,-6.617388333106211107e-03,-7.021293994330441990e-01,2.063433572607094035e+00,1.726785110866307926e+00,-2.035438112334092331e+00,1.348865393193891538e-01
4.924211166435686626e-02,5.096519620856568844e-01,-1.119783536812650471e-01,-1.664709122481227599e+00,-4.020265846914355956e-01,1.833305179688525799e+00,4.150276282796834804e-01,-6.857783885987844830e-03,1.323547388047642270e-01,6.209266476155622660e-01,7.001314241271695549e-01,-2.346757390822051814e-01,5.111106631473416595e-01,5.511284749955057682e-01,-8.412121761674313802e-01,-3.037631556969391688e+00,4.491289322144592866e+00,7.522786578291253967e-01,4.346148462534055845e+00,-5.532111011631155595e-01,-4.960303934765567524e-01
-3.248756942081264948e-02,6.843641048316846387e-01,-2.967367267912042195e-01,-1.630660057042851774e+00,2.082623249321239323e-01,1.862258542435007325e+00,1.249061154668235751e+00,3.501809727788149917e-01,-5.848894951114852470e-01,6.084962443811524624e-01,-4.203411745232373264e-01,-3.449397876967023047e-01,4.659904067347470646e-01,-1.644621109708490625e-01,5.104388330187497047e+00,-1.691578268422950337e+00,7.485899220436603940e+00,-2.882166086321738874e+00,-5.885444485719029117e+00,4.831796454330216761e+00,-1.929179472273793605e+00
1.372554177073073006e-02,-1.081758068095273417e+00,1.723099110462129879e-01,-9.995738916422584053e-01,-5.553327810046559954e-01,2.409278870020119090e+00,-5.337528997340736936e-01,5.605958813300795374e-01,6.652883624400323104e-01,3.128976539581907468e-01,3.199813084196416746e-01,6.886066205767721327e-02,-4.237003977592146420e-02,7.574011991898210727e-01,4.002690853857151509e-01,1.091595699926456886e+00,-9.683130199211700262e-01,1.213476249743285607e+00,2.428712907136368226e+00,6.612952232242758299e+00,5.390376235560442097e+00
6.252298021522001426e-01,-7.735622585970430842e-01,-1.293913552825558810e-01,-2.274781919149757137e+00,-1.897664407423945987e-01,1.770178490167418239e+00,-4.228355063499061872e-01,-1.423260148926301039e+00,2.023362451687826802e-01,-2.976046189818961629e-01,6.717590891064445513e-02,-2.278735253124652971e-02,1.220867049770130830e+00,1.040397759886357298e-01,-2.914658568842996900e+00,2.144042742273093438e+00,-1.376327465537329875e+00,3.446241208955067581e+00,1.451270816853096335e-01,7.577351006474208006e+00,-1.335197311313832902e+00
-6.140933095352830301e-02,-9.007576903914815691e-02,-4.101936782675892901e-01,-1.244579572821129965e+00,-1.172163170508333796e-01,1.935317768206353817e+00,-1.418039642883565654e-01,-3.196693984429649360e-01,-4.959558574584826962e-02,3.781601203671784983e-01,-2.338618908911287153e-02,-1.144965330751707810e+00,2.086214920610775514e-01,-1.227531033785424830e+00,5.587603111398032896e-01,-5.224963687630605591e+00,4.227795282658456388e-01,-3.394538448997677538e+00,-7.664823383152825631e-01,1.482149689459780761e+00,3.379951841311148897e+00
-6.453504762655429272e-02,-2.188493046653568197e-02,-2.031822675916088172e-02,-1.779553497438506771e+00,2.195821055265384514e-01,2.087301421305723270e+00,1.293068497031122588e+00,-1.009321412929113371e-01,-3.335828733071004581e-01,-1.225396188408749198e+00,2.354161412853816582e-01,9.374444661660781275e-01,6.362749859982070877e-01,-5.925387204852237133e-01,-1.225826089650178474e+00,-5.136827493410059731e+00,-4.647288152788531246e-01,8.413323020051244328e-02,4.498724267991202730e+00,5.408611805426051689e+00,-9.462793467696791083e+00
1.161177076997386287e-01,-9.429025690702628193e-01,-5.975490820812559556e-02,-1.583232134893854504e+00,-1.115206416436496983e+00,2.249757975406337707e+00,6.668017655826630197e-01,-1.045465680254028973e+00,5.524775685956850868e-02,8.543965947649351245e-01,-3.741027363141098960e-01,-1.454734596437353700e-01,1.238317731659964727e-01,-3.920684799913541352e-01,6.113276152435962452e+00,1.971437455909513581e+00,1.722199912167959646e+00,5.581218467742832257e-01,-1.102936123562556769e+00,1.703670813165007569e+00,-9.615039665858422069e+00
-5.582556687114981209e-01,-1.115772433697768268e-02,7.119217858926726872e-02,-2.054870961387264217e+00,2.797484078380572114e-01,1.553002958846630310e+00,-2.364391504996523063e-01,-7.248573101184090373e-01,-2.499773825382634040e-02,2.279464842797915836e-01,-6.310462409028343433e-01,-1.520720053979574882e+00,1.038372211306903825e-01,-3.951085816948405327e-01,2.921335971346280314e+00,-1.361459773311538779e+00,-6.584676439685591021e+00,1.324228419797116363e+00,2.688977468348457300e+00,1.034229373987886280e+00,7.872030693258374789e+00
9.217193845965234722e-01,7.155035233814034390e-01,-4.649249412828131423e-01,-1.574411147550230483e+00,6.281530567112281194e-03,1.901686014594249796e+00,-2.566497992483742774e-01,1.097366886304442568e+00,6.168981150626662302e-01,-3.099808292875140259e-01,6.179263234090193180e-01,-4.669992215512291378e-01,3.522328861270188627e-01,-5.563230899930291518e-01,-9.192784974389809349e-01,-1.261266923180583088e+00,-3.168786930221730636e+00,3.785617979638887798e-01,-9.742824435737960087e-01,2.136129808843469924e+00,1.133256683557495315e+00
8.265321171987494164e-02,-2.411468306630080299e-02,-1.365645139100552630e+00,-2.259070436441176444e+00,1.164137844813698308e+00,8.287842300808794249e-01,-6.109577074825424392e-02,5.814798177172197935e-02,8.879776846498449450e-01,-2.367474972770987618e-01,-2.897282121802305377e-01,-5.034893730147177449e-02,8.649327158080957201e-01,1.119769421516685792e+00,1.588433879388233105e+00,2.185042588238141903e+00,-3.001589176979602591e+00,-3.598457812595431626e+00,7.992430869664735038e-02,6.185893894272925131e+00,3.532472432383659378e+00
-9.300928302896146471e-01,-1.522802798446558359e-02,3.702278395832082625e-01,-1.860286314295695131e+00,-1.652533735808974988e-02,1.698724491984137330e+00,2.104596078187039032e-01,-1.066060805652615295e+00,5.411737754665285616e-02,5.004414649072402854e-01,-1.800794514980810779e-02,7.368496800275098346e-03,7.809780703155551063e-01,6.307861948873969560e-01,6.302863325677566797e-01,3.516974091375480782e+00,8.522224983128232623e-01,1.963359335532427918e+00,1.037682086129976478e+00,-1.142167520980520656e+00,-4.718885150908466386e+00
-1.132893401754010848e-01,-2.187749412851158759e-02,5.579494563682234620e-01,-7.878354984620490331e-01,-7.945903590515416282e-01,2.146423115547593685e+00,-8.043558652557580846e-02,-1.397292223303038927e+00,-1.948619398927834978e-01,-1.612644575679538783e-01,-9.119757190794777757e-02,9.434823232065705501e-01,2.001342478051038598e-01,-9.978174823272967231e-01,1.222120321091262785e+00,1.527885893631076852e+00,-1.259676670440855073e+00,-5.191650388432615948e-01,6.483286126320428444e+00,4.331404232871713056e+00,5.994340086449385652e+00
-9.383728971909726102e-01,3.247732626025774672e-02,9.410415280886406247e-04,-1.813294883726768614e+00,-1.368384132717521684e-01,2.611543858520845696e+00,-1.964501545233851010e-01,6.641157411190150572e-01,-5.461117606883830744e-01,-7.434812194183409995e-02,4.837303753238824111e-01,2.079873799701011383e-01,-5.184345306159627853e-01,8.199771710834030669e-02,-4.592577872934942462e+00,-2.883670994520629804e+00,-2.438849866754826401e-01,6.709657169345917271e-01,1.210474103849843441e-01,-4.839268280725550930e+00,2.727750914749526689e+00
-5.547852723677338949e-01,2.095986346828080660e-01,-5.274282177984506575e-02,-1.523454337328568720e+00,-1.258443776138851444e-01,1.894578660595753528e+00,8.398095249256415373e-01,3.180515027117345461e-01,-1.050456543972756729e-01,3.201405988024627614e-02,2.484525578561233572e-01,-3.000717143700845080e-01,-1.020521977106592093e+00,-4.226278934499436146e-01,1.197735631126994171e+01,-8.223505960025029315e-01,3.948320272856595814e+00,-3.704512795131026381e-01,8.576725413795049935e-01,-1.942255014470261054e+00,6.062785252597410190e-01
3.420994150056512195e-01,5.014382903371260580e-01,-2.338350772660276744e-01,-1.510750103397877853e+00,-1.665672379092935307e+00,1.876233072443139305e+00,7.465123410159393846e-02,-7.519223344363070716e-01,9.324904721324762946e-02,-1.392502548002594320e+00,9.870540477633983345e-01,1.443314580542073511e+00,7.377252356681353040e-01,-2.122296804868923914e-01,-9.222545268960293807e-01,-6.442058539653885418e-01,5.699196247225856160e-01,-1.560817743562923798e+00,-4.952193517791698696e-01,-5.673052996352605959e+00,-6.740715077801517907e-02
-1.971377836374149303e-02,2.455979367030500932e-02,1.252261731080128726e-01,-1.497802353881968696e+00,-6.056836916224979384e-02,2.113461784824194556e+00,1.337937800525709431e+00,-2.013466510395470754e-01,3.294519765841119607e-01,-1.079056511333543522e+00,2.872234230170216951e-01,-4.987100388507603732e-02,-3.087159770687808447e-01,-6.675728229485033971e-02,6.857511760756855868e-01,1.105016655183149066e+00,1.982478916209233333e+00,6.624215999092836427e+00,-2.264791905615021861e+00,2.700406746114167866e+00,-2.759598424849420084e+00
-4.664390950053637352e-05,-1.721302364950237918e-01,-1.879349375573961811e-01,-1.218216102017466218e+00,1.339422875076271779e+00,1.792602627262223969e+00,-7.305721636440595801e-02,-1.144760595691587390e-01,-7.342937161645000099e-01,3.939361875391897416e-01,9.004745340587071434e-01,-2.063866814693739449e-01,3.582688610299102905e-01,-3.533521047521502312e-01,4.664362084519217078e+00,7.171312067683335290e-01,-1.206306705049783545e+00,-3.587356739511784465e+00,-7.645027378750035574e-02,1.029851450756933184e+00,2.006608973504764748e+00
-2.573608968030617894e-01,1.502054798731627602e-02,9.661142841906070200e-02,-1.375638319488662109e+00,5.472956043088060829e-01,6.226533863277925462e-01,8.268190297684363532e-01,-3.297921868733277861e-01,5.988063450086207329e-01,2.438614510009687320e-01,2.366306325809859890e-01,-3.693700021444460413e-01,-3.581389537467241091e-01,3.940017409800181669e-01,-2.450049734057681672e+00,-2.274167829311154243e+00,-1.084937474747215358e+00,-1.022388153618739004e+01,2.073774582265183186e-01,1.712964206340485962e+00,5.045397781500921219e+00
-3.329297602355308916e-01,-1.351251609713647328e-01,-1.130225441069297121e+00,-1.686982997446644816e+00,-1.630451680082138644e-02,1.233339908911088578e+00,2.353896853502489561e-01,1.109612713565709896e+00,9.042379658630139705e-01,-1.144550500682827154e+00,6.511949024281560305e-01,4.507416585098306117e-01,5.139138885830746295e-01,2.899031723002086780e-01,2.401484425004431600e+00,4.291098240433600886e+00,-4.765444197096685208e+00,4.470473422726454871e+00,1.126270304146237633e+00,-4.387514150872668495e+00,-4.528077566603442072e+00
1.694941162055337402e+00,1.666248418518120999e+00,-3.899438079866164308e-01,-1.594691973872259361e+00,1.333674062890186085e-01,1.533452045938425101e+00,-7.522456023599714825e-02,-1.186774357682510161e-01,-1.260461137323068970e-01,-2.900587599248638515e-01,-1.451372861989340957e-01,-1.301634017927176146e+00,-6.011415582663475199e-01,3.022379969585944348e-01,2.160266117395852170e+00,-3.216709289107964498e+00,2.144650794246242498e+00,1.842308103748130366e+00,-2.033823893358208679e+00,2.250535392835499415e+00,7.596877235648705984e+00
-1.679454765560898510e-01,2.484472977149240758e-02,1.034964390725615496e-01,-1.179070628179296643e+00,1.114600805518698889e+00,1.497723959653047165e+00,9.276207299494566849e-02,3.216558875207115031e-01,2.648758660978365320e-01,-3.895560938956104113e-01,-5.525543146587265364e-02,6.948517977140020729e-01,-5.079940562527229808e-01,-2.230445697184151033e-01,3.851341149423935573e+00,2.069501979997801833e+00,-4.046700912827882135e+00,7.920061293651475820e-01,1.774291722629214529e+00,-5.738215337766723323e-01,-7.387989238770393818e-01
-3.899019159377999921e-01,6.844208519918193456e-02,-4.362954663615875583e-01,-1.306257776813828597e+00,-1.983091340954305504e-01,1.952743926745962755e+00,1.545860221062155482e+00,-1.366883344277332879e-01,-7.192134999459685041e-01,2.249191869054381065e-01,-4.076091459210848811e-01,1.238954983208729876e-01,1.998809457175470816e-01,-8.263455131089422756e-02,-5.720665659501348976e+00,3.646857055063209008e-01,3.500344718938302346e+00,-4.391022934586647608e+00,-5.996794729102609800e+00,3.509575230117792266e+00,-2.306057724966836808e-02
-1.003709583119757609e-01,-1.236610952052677348e+00,1.429067018852669291e+00,-1.585352787717464462e+00,-2.574235992183798727e-02,1.672837423710525906e+00,-2.803017730472179836e-01,-1.833369773080842036e+00,1.264012760119882783e-01,3.659162967626441443e-01,-1.089207472830179269e+00,-7.062626393886333176e-01,4.175163071107930168e-01,-6.288171125113128923e-02,2.511801596359993560e+00,-1.187097597180177821e+00,1.576718102751445638e+00,-1.699067276702524554e+00,3.621938630327932618e+00,-3.794035441956702392e+00,1.900498706986731623e+00
-1.148652934833422484e-01,8.321216124803132441e-02,9.884850369351019239e-01,-1.595845918308090639e+00,1.904095958573845948e-01,1.594466009531062989e+00,-2.979620166400528403e-01,-5.881045326273837137e-02,1.663048465621764782e-01,7.712419801612844239e-01,-9.952974638200728918e-02,8.693398866467814123e-01,-1.239102408286118506e-01,-5.324264812281023218e-01,5.965474056408806014e+00,-8.482536408878725842e-01,-8.930123553113452628e-01,4.268807590987564460e+00,-4.131722822881343404e+00,2.365619374158827171e-01,1.721085278804663776e+00
4.611243703400209892e-02,1.414212682394724307e-01,-1.234944586767716679e-01,-9.262052196677993399e-01,2.421695585821141972e-01,1.419552242547070797e+00,5.235371012465490637e-01,-3.022199330806174533e-01,3.644747531835221821e-01,2.823975894784002127e-01,9.789976712744472565e-01,-1.299340233871991712e-01,1.458728303277651683e+00,2.044048010569555762e-01,-3.732103897477259569e+00,9.334620243034683629e-01,1.878664459028192901e+00,4.579170083042378714e+00,3.246007800477205496e+00,-5.162989670629277050e+00,3.208660348099237059e+00
-5.085027248145385093e-02,4.034938415194645051e-02,3.019006451099555122e-01,-1.509376491384492702e+00,-2.079810649482006224e-01,2.613407190850431938e+00,-6.501908466118753172e-01,8.846086336341386636e-01,4.536683753850969669e-01,5.343537749408355797e-01,1.185253175431751210e-01,4.353325460635250332e-02,-7.734353026516408436e-01,5.811917655032554642e-01,2.663880506808376403e+00,-6.483081630766118764e-01,-3.714248200477952011e+00,1.593687619790298715e+00,-6.550100935547099823e+00,1.455636747127734054e+00,3.738322544368036793e-01
1.141101013536673231e-01,-3.946699212070826218e-02,3.178937631777516148e-02,-2.886574108194956967e-01,6.163686104555709394e-03,2.250959575196696427e+00,-3.295088217841026790e-01,-1.522937290744491579e-02,2.803254900302553643e-01,-5.400825215698090709e-01,-2.226174889058622763e-01,2.372060731997271688e-01,4.185664270597907466e-01,-8.136681641436819268e-01,3.940092024092474166e+00,1.524839619944442504e+00,-2.165294614751122282e+00,-2.750038636301376016e+00,9.324325711073302436e-01,-7.918565950144387244e-01,1.263600848656524889e+00
4.070692417795373497e-01,1.664714237977415467e-01,2.061459308102724930e-01,-1.797670074456558797e+00,3.445560205262454545e-01,6.596225525480123864e-01,1.231906986028238338e-01,1.019520291171913007e+00,-1.002825943141247400e+00,3.435173579922001230e-01,-1.622242935099648120e-01,-1.406755179816357559e+00,2.399690920957481821e-01,8.332925600028945334e-01,-2.945568427560307789e-01,3.518603301165839081e+00,-4.092024343465358704e+00,4.196348954207451243e+00,-7.728733040783652974e+00,-7.383416489011935813e-01,6.073582897501454525e+00
-1.472777514573120339e-02,-1.669491844191760277e-01,8.221159740293965124e-02,-1.573841800749332887e+00,2.978091210883017648e-01,3.396299471254718760e+00,7.500351946680849924e-01,-4.697447850981151252e-02,1.913226653426081114e-01,-4.164746380023613970e-01,1.516559994578881576e-01,1.077666386716362057e+00,4.397911353189841444e-02,6.076683947735348479e-01,-1.046327873294317978e+00,-1.523747458775926766e+00,-2.576630032589014574e-01,1.965634317657160013e-01,-1.125082946331162681e+00,1.004845650580760363e+00,-2.594515152359460508e+00
2.897615009470139724e-01,-1.213987568232709480e+00,-2.029216513760270790e-02,-1.568654316952998284e+00,2.004573591536208121e-01,1.466623547898352475e+00,4.043288061431354330e-01,-7.794351821796936530e-01,6.431702930734979340e-01,3.166782259117859044e-01,8.682328891304236240e-02,9.987527298927412200e-01,-1.019713154158809587e+00,-1.338973878734185607e+00,-6.476193639094921295e+00,-2.644605064806904160e-03,4.763031857744030040e-01,-2.258472537321698503e-01,-7.918847898280169773e+00,3.952673586757469604e+00,3.550186454829237004e+00
-2.622903831601440805e-01,-7.826410265483557671e-02,-6.091130999642866417e-01,-1.296817804895566750e+00,-1.038330359723397406e-03,2.211844037987765077e+00,-9.653406027631132591e-02,-7.667430955938836501e-01,-1.356675206934132016e-01,1.247490209737434297e+00,4.282038797261233931e-02,1.470776790334892947e+00,-3.012851468028574509e-01,3.967485604428416246e-01,2.885835942671668874e+00,2.494072033113834408e+00,7.257392736317844761e-01,3.062099173325521839e+00,-1.109722061762476342e+00,5.335042249286520155e-01,2.810912822967588376e+00
3.198483827042295502e-01,-5.782529309306209120e-01,6.538605064263950384e-01,-1.750061051084553121e+00,-9.875662168180618372e-02,2.276551224406238472e+00,-3.682678153524678727e-02,4.745281727342695044e-01,-1.742800326823541746e-02,-1.305203237752275980e-01,3.347246470921691475e-02,-1.370527744081264099e-01,-5.133692326176142462e-01,-5.623041421729255696e-01,-9.516560991752811560e-01,6.252388597762649214e-01,-1.967491117535613121e+00,5.132715845664958643e+00,3.194459123707770409e+00,-5.434613578718531457e+00,6.266387480904239915e+00
-3.986333092475135426e-02,7.211144750801902481e-03,2.890278241912064283e-01,-1.668825143525810573e+00,3.134540615376527617e-01,2.639248016352875315e-01,-7.934822910577508104e-01,-2.023526172286550517e-01,-5.246239261281636646e-01,3.913740232780129474e-02,1.411271643758688077e-02,-4.483326289041680290e-01,-8.805070632192574243e-02,4.481112584286160438e-01,8.250420190506189133e-01,-4.490410472796980024e+00,-3.482226738267132138e+00,5.847359013172315656e+00,-1.360131890104759878e+00,6.173854869059644201e+00,-2.909596820408668627e+00
-1.140818514556945495e-01,-1.512809429509780201e-01,-3.784487261893207943e-01,-1.462896138131073664e+00,4.024975627620204222e-01,1.773313684878388141e+00,1.930987280969113651e-01,-7.071290736367676910e-01,-6.135333045643278638e-01,-3.344895542296449920e-01,6.054895974022962424e-01,3.133405034781433507e-02,4.098752706632102782e-01,9.745205791422707486e-01,-1.084822670795601463e+00,-3.204751280967194749e+00,-2.493346481017790772e+00,-6.446549680027798601e+00,-4.793893022835087336e+00,3.047142905352924647e+00,-4.565060986156588285e+00
-5.056071879157127968e-01,-1.104375808436450640e-01,-8.661966237197279428e-01,-1.737553142475427137e+00,1.396058388334803446e+00,1.855592463531150704e+00,2.105654094591293268e-01,-9.733292404467183134e-01,8.164493432239474657e-01,5.529272775052782585e-01,-6.172324125096403380e-01,-2.769969114666919197e-01,7.346460991206469338e-01,-2.712691877927401185e-01,6.386964806445478260e+00,4.679461470568988091e+00,-7.950721542093055483e-01,-2.438742341579685835e+00,1.913726135646715232e+00,-6.480022202780718388e+00,-9.548287911154814012e+00
-9.603291674564802538e-02,6.881418371120233690e-01,-1.310848626206843948e+00,-1.450207956823563071e+00,1.637934791020847769e-01,1.875180258322868276e+00,9.201558547786761744e-02,1.016859452025924149e-01,2.689611070968639384e-01,7.534916821029267187e-01,3.875036346811214227e-01,-6.268743138199067699e-02,3.739707000851064667e-01,-2.241691304803083429e-01,2.364691009370471164e+00,-3.888531492569489711e-01,-5.289101253125148006e+00,-1.968054989388506870e+00,2.223706640490059616e+00,2.300182936534013844e+00,-6.057358293259672344e+00
