1.545219987086451141e+00,-1.269137393331616792e+00,-1.332680283446956437e-01,2.001587226433193756e+00,-4.535045517224349787e+00,-3.730373282363716569e+00
-6.485160694525506919e-01,-1.178683115381628177e+00,1.395893996085181055e+00,-4.721318881898441955e-01,6.614860059696050953e+00,-1.026543711413967941e+00
-8.523397542487869405e-01,-2.581958631125246040e+00,-5.691225935728290164e-01,-3.317313215964490247e-01,-4.189332811664425726e+00,9.580447338104459476e+00
-5.462578262595108036e-01,-1.701942205824900745e+00,2.046596023659242647e+00,1.882506434686485264e+00,4.135229269995717161e-01,-5.289664447392450342e+00
-7.014327075794635213e-01,-1.758456790305807260e+00,-3.295419536941182059e-01,2.026198054904337020e+00,7.185481145339871034e+00,-1.793487803141928794e-01
-1.599495811108612386e+00,-9.333385133674987344e-02,-1.194116213752512756e+00,2.623352815777395541e-01,2.815698816428149343e-01,1.155646884821554110e+01
-2.009347191886188266e-01,-1.425658353235758291e+00,-2.096315811327496892e+00,1.872043420565721483e+00,-2.111736854627288551e-03,3.604475853210846736e+00
1.622476632903414373e+00,-2.754637095286658344e+00,-1.305236597248058406e+00,-1.753023113073232775e+00,3.313206162510690334e+00,-3.423244544632755293e+00
-1.597139110015424412e+00,-2.270904610551915503e+00,-1.651391523675504125e+00,2.029531317120668810e+00,-1.325881290234979026e+00,7.900906768958481763e+00
1.432027792484313000e+00,-6.474522812962684171e-01,1.086630817964667539e+00,-6.435027325429489853e-01,6.945660423684403284e+00,6.275831357181118619e-01
-1.394323503859251412e+00,-9.917363304234996235e-01,-3.994851130137142547e-01,-1.461195384840527023e+00,5.207457582657237793e+00,7.234266644102934407e+00
-2.327274813640924922e-01,-1.708712324809414707e+00,1.994659840138918838e+00,1.983152734222732860e-01,4.525927860677853687e+00,-8.043409510486551284e+00
1.641674477191999770e+00,-5.603289014614474262e-01,2.111836422115235479e+00,-2.075095138121032079e+00,-3.737765490857178463e+00,-8.019154022789674485e+00
6.206363736301105938e-01,-2.903552025064175535e+00,-1.877217276629056908e+00,-2.149396474186480610e+00,-5.716900317015880972e+00,-3.391616783957726255e+00
1.451751546423136752e+00,-2.115301909320218776e+00,-1.859377173249986859e+00,-9.558534002521235085e-01,-2.824190167196793055e+00,7.973459681985044512e+00
-1.574972698308694241e-01,-3.982225500328193668e-01,-2.168218143732380199e+00,-1.577793997197641351e+00,6.836153883720104574e+00,1.138909131378723671e+01
-1.528251389535433491e+00,-2.100282648987544132e+00,-9.281761581850991316e-01,-8.473024842734111495e-01,-4.073087389845464479e+00,-1.046289018978815477e+01
5.364320347647622000e-02,-1.060871645668877150e-01,1.744392770039539187e+00,-8.109756702570147802e-01,-6.671403063437689518e+00,-7.926315888934254872e+00
8.312196559602917922e-01,-1.288466525567394827e+00,-4.245932630078821379e-01,5.278350934761064650e-01,6.349301170767537528e+00,5.123553107175716548e+00
-1.004138417483897650e+00,-2.317985580847794047e+00,1.015893737607246550e+00,1.758314049808884505e+00,4.303457800305773517e+00,-1.695362520098777637e+00
-1.743335313916365870e+00,-1.452866939190366136e+00,-1.257694911914257752e-01,1.758589384962319091e+00,1.535408196023025695e+00,6.851355778499478077e+00
1.369015224891967364e-02,-6.392856415585428387e-01,1.766370977926228214e+00,2.088940969454536223e+00,-3.144875295591081255e+00,-5.492860176335764955e+00
7.763441853130688131e-01,-1.233667275781724193e+00,2.121042604831305134e+00,-1.425907056892987024e+00,5.716687900235076114e+00,9.440271565529645414e+00
5.530787884041159508e-01,-4.280540965753942828e-01,-3.150417890487509087e-01,-8.971047496925477205e-01,-2.664713926458708748e+00,-5.719715861925777745e+00
-1.654032635983306188e+00,-1.085581249881449217e+00,-1.292109948391827468e+00,2.122134273640363666e+00,5.146640603980285888e+00,-7.444517424883869694e-01
-7.249334713015986864e-02,-7.312397412388049744e-01,1.731370897991011404e-01,-2.009308806947711190e+00,7.194750971164568298e+00,-4.287288500694227622e+00
-1.592404578501596113e+00,-3.692237617829148277e-01,2.047616766681229272e+00,-1.137166477628364314e+00,3.028604611568217919e+00,4.486105423838885997e+00
1.245802365262809630e+00,-1.304463859171781204e+00,1.137669578001360371e+00,1.244120587776669229e+00,-6.824590229019632304e+00,-9.135655295909039353e+00
-8.238749978457825529e-01,-1.562111848106103151e+00,1.233863761420908922e+00,-3.857801413272765600e-01,6.121134089466158557e+00,-4.956727079870814734e+00
-1.187217000362270625e+00,-2.581764292262825666e+00,-1.085317264102427792e-01,1.810795968394807609e+00,-1.371861903602566102e+00,1.186238730898724825e+01
1.433083727735084523e+00,-5.732849499674528282e-01,-1.599740900668923160e+00,-5.398973362163497214e-01,2.961980049213588373e+00,4.924514083911581963e+00
-6.048851451664178924e-01,-1.027256441981892365e+00,-1.801272906366830240e+00,-1.776208323706972125e+00,-1.429091772933309912e+00,-1.167069516804559726e+01
8.709336437151820043e-01,-2.488677648707457113e+00,1.067497997306623869e+00,1.991174839934341634e+00,7.409147278871426323e+00,-2.396412319237887445e+00
9.437593153748733421e-01,-1.638810442270439260e+00,4.857066467086190720e-01,-7.583816312997853082e-01,-2.650011120638059658e+00,1.172590021564066376e+01
1.568744044984191621e-01,-5.936397635365642245e-01,-1.838939917302833793e+00,8.847400981444266677e-01,5.125532889655200819e+00,-1.181422918477882433e+01
-2.586638609945957068e-01,-1.091808178660335749e+00,1.123876248696294322e+00,8.274499224751856730e-01,-1.596748117622882823e+00,8.859773180276793170e+00
8.547999251920366248e-01,-2.141641166822071174e+00,-6.848191029941692598e-01,-1.129241410027276959e+00,-2.147965940548783870e+00,1.227276113167933147e+01
-7.023283548791323661e-01,-1.656059984287590048e+00,-8.185353455600974382e-01,-1.852032111226214361e+00,9.164287562668835818e-01,4.521022661567521084e+00
9.071691135033224107e-01,-2.066270540420411805e+00,7.671687853000377366e-01,-1.650406250050304946e+00,-6.034082541101555286e+00,-9.465291247121122353e+00
-5.579464235406033090e-01,-9.009382333814914823e-01,1.827500284102030470e+00,-1.971881544736262537e+00,1.197870183213616713e+00,-3.854804209568843731e+00
-3.267432436069390711e-01,-1.905964560657672502e+00,7.319082232282743128e-01,-7.387283819240550997e-01,-4.309556035963701959e+00,-3.941999946551655754e+00
6.073151522312754125e-01,-7.374956179621858787e-01,2.655017537618866719e-01,-2.051987608402226382e+00,-5.398911328148491506e+00,9.332641393311753575e+00
-1.839182074912690812e-01,-3.064198575980531469e+00,-1.605452653868777002e+00,3.819576145535963363e-01,5.975038219073148582e+00,8.151996209912280023e-01
-1.166841853621781500e+00,-9.453890705704464104e-01,1.060872823455526248e+00,1.410196687660525861e+00,7.415297598343411067e-01,1.026686270707633852e+01
2.497772736787164938e-01,-1.117920232993680596e+00,1.169148581405133669e+00,3.761362701326635971e-01,1.423088427318022653e+00,-5.252698861969607336e+00
-4.408867185185783022e-02,-2.183287041965398689e+00,6.403323970389278585e-01,1.657340608086574463e+00,8.218682004150110743e-01,-9.822309006968428235e+00
-1.526832185508019801e+00,-2.047193945178169550e+00,1.489587380156494945e+00,-1.060262739278527988e+00,6.937772260841425620e+00,2.917661443489263817e+00
-5.105641908983111765e-01,-2.426903521128161323e+00,2.877325736576286097e-01,-6.764172594014343787e-01,3.448543169972861477e+00,-7.272282771611459751e+00
-4.036005715219252998e-01,-2.069772169567143383e+00,-1.395451842351658200e+00,-8.117305017118647825e-02,-7.218343651924496562e+00,-5.665376504635199595e+00
-1.270707044681800513e+00,-1.946507260816325857e+00,-2.284922016354689056e-01,1.886910054853037977e+00,5.498601190442547804e+00,1.030075058702961499e+01
